%YAML 1.1
%TAG !u! tag:unity3d.com,2011:
--- !u!114 &11400000
MonoBehaviour:
  m_ObjectHideFlags: 0
  m_CorrespondingSourceObject: {fileID: 0}
  m_PrefabInstance: {fileID: 0}
  m_PrefabAsset: {fileID: 0}
  m_GameObject: {fileID: 0}
  m_Enabled: 1
  m_EditorHideFlags: 0
  m_Script: {fileID: 11500000, guid: 245aaefa8cca8814ea2b94b50faccd28, type: 3}
  m_Name: Laser
  m_EditorClassIdentifier: 
  isLastWeapon: 0
  type: 1
  nextWeapons: 0300000002000000
  weaponSprite: {fileID: 3058061391547249780, guid: 899062715d9d1fa4ab44c8dffdd47cc3,
    type: 3}
  name: Laser
  damage: 2
  baseDamage: 2
  energy: 1
  fireRate: 0.55
  bullet: {fileID: 7104519898465317172, guid: 09052812c908a7446ab4a7695926c16f, type: 3}
  bulletVariant: {fileID: 7505493875167619003, guid: 265d8a11573c7c745bf13b8253324cbb,
    type: 3}
