%YAML 1.1
%TAG !u! tag:unity3d.com,2011:
--- !u!1001 &770271517320959631
PrefabInstance:
  m_ObjectHideFlags: 0
  serializedVersion: 2
  m_Modification:
    m_TransformParent: {fileID: 0}
    m_Modifications:
    - target: {fileID: 7104519898465317172, guid: 09052812c908a7446ab4a7695926c16f,
        type: 3}
      propertyPath: m_Name
      value: LaserBullet Variant
      objectReference: {fileID: 0}
    - target: {fileID: 7104519898465317174, guid: 09052812c908a7446ab4a7695926c16f,
        type: 3}
      propertyPath: m_LocalPosition.x
      value: 24.386768
      objectReference: {fileID: 0}
    - target: {fileID: 7104519898465317174, guid: 09052812c908a7446ab4a7695926c16f,
        type: 3}
      propertyPath: m_LocalPosition.y
      value: 3.827038
      objectReference: {fileID: 0}
    - target: {fileID: 7104519898465317174, guid: 09052812c908a7446ab4a7695926c16f,
        type: 3}
      propertyPath: m_LocalPosition.z
      value: 0
      objectReference: {fileID: 0}
    - target: {fileID: 7104519898465317174, guid: 09052812c908a7446ab4a7695926c16f,
        type: 3}
      propertyPath: m_LocalRotation.x
      value: 0
      objectReference: {fileID: 0}
    - target: {fileID: 7104519898465317174, guid: 09052812c908a7446ab4a7695926c16f,
        type: 3}
      propertyPath: m_LocalRotation.y
      value: 0
      objectReference: {fileID: 0}
    - target: {fileID: 7104519898465317174, guid: 09052812c908a7446ab4a7695926c16f,
        type: 3}
      propertyPath: m_LocalRotation.z
      value: 0
      objectReference: {fileID: 0}
    - target: {fileID: 7104519898465317174, guid: 09052812c908a7446ab4a7695926c16f,
        type: 3}
      propertyPath: m_LocalRotation.w
      value: 1
      objectReference: {fileID: 0}
    - target: {fileID: 7104519898465317174, guid: 09052812c908a7446ab4a7695926c16f,
        type: 3}
      propertyPath: m_RootOrder
      value: 0
      objectReference: {fileID: 0}
    - target: {fileID: 7104519898465317174, guid: 09052812c908a7446ab4a7695926c16f,
        type: 3}
      propertyPath: m_LocalEulerAnglesHint.x
      value: 0
      objectReference: {fileID: 0}
    - target: {fileID: 7104519898465317174, guid: 09052812c908a7446ab4a7695926c16f,
        type: 3}
      propertyPath: m_LocalEulerAnglesHint.y
      value: 0
      objectReference: {fileID: 0}
    - target: {fileID: 7104519898465317174, guid: 09052812c908a7446ab4a7695926c16f,
        type: 3}
      propertyPath: m_LocalEulerAnglesHint.z
      value: 0
      objectReference: {fileID: 0}
    - target: {fileID: 7104519898465317173, guid: 09052812c908a7446ab4a7695926c16f,
        type: 3}
      propertyPath: m_Sprite
      value: 
      objectReference: {fileID: 21300000, guid: 8fc41eb405acb9a41a0fa868d098051f,
        type: 3}
    - target: {fileID: 7104519899225709618, guid: 09052812c908a7446ab4a7695926c16f,
        type: 3}
      propertyPath: m_Parameters.colorGradient.key0.r
      value: 0.46274513
      objectReference: {fileID: 0}
    - target: {fileID: 7104519899225709618, guid: 09052812c908a7446ab4a7695926c16f,
        type: 3}
      propertyPath: m_Parameters.colorGradient.key0.g
      value: 0.7058824
      objectReference: {fileID: 0}
    - target: {fileID: 7104519899225709618, guid: 09052812c908a7446ab4a7695926c16f,
        type: 3}
      propertyPath: m_Parameters.colorGradient.key0.b
      value: 0.2784314
      objectReference: {fileID: 0}
    m_RemovedComponents: []
  m_SourcePrefab: {fileID: 100100000, guid: 09052812c908a7446ab4a7695926c16f, type: 3}
