%YAML 1.1
%TAG !u! tag:unity3d.com,2011:
--- !u!1001 &3860468969972624572
PrefabInstance:
  m_ObjectHideFlags: 0
  serializedVersion: 2
  m_Modification:
    m_TransformParent: {fileID: 0}
    m_Modifications:
    - target: {fileID: 1492330344712649864, guid: c989edca894e8e74baa57898a0cb9b55,
        type: 3}
      propertyPath: m_Name
      value: PBullet
      objectReference: {fileID: 0}
    - target: {fileID: 1492330344712649866, guid: c989edca894e8e74baa57898a0cb9b55,
        type: 3}
      propertyPath: m_LocalPosition.x
      value: 8.37
      objectReference: {fileID: 0}
    - target: {fileID: 1492330344712649866, guid: c989edca894e8e74baa57898a0cb9b55,
        type: 3}
      propertyPath: m_LocalPosition.y
      value: 0
      objectReference: {fileID: 0}
    - target: {fileID: 1492330344712649866, guid: c989edca894e8e74baa57898a0cb9b55,
        type: 3}
      propertyPath: m_LocalPosition.z
      value: 0
      objectReference: {fileID: 0}
    - target: {fileID: 1492330344712649866, guid: c989edca894e8e74baa57898a0cb9b55,
        type: 3}
      propertyPath: m_LocalRotation.x
      value: 0
      objectReference: {fileID: 0}
    - target: {fileID: 1492330344712649866, guid: c989edca894e8e74baa57898a0cb9b55,
        type: 3}
      propertyPath: m_LocalRotation.y
      value: 0
      objectReference: {fileID: 0}
    - target: {fileID: 1492330344712649866, guid: c989edca894e8e74baa57898a0cb9b55,
        type: 3}
      propertyPath: m_LocalRotation.z
      value: 0
      objectReference: {fileID: 0}
    - target: {fileID: 1492330344712649866, guid: c989edca894e8e74baa57898a0cb9b55,
        type: 3}
      propertyPath: m_LocalRotation.w
      value: 1
      objectReference: {fileID: 0}
    - target: {fileID: 1492330344712649866, guid: c989edca894e8e74baa57898a0cb9b55,
        type: 3}
      propertyPath: m_RootOrder
      value: 0
      objectReference: {fileID: 0}
    - target: {fileID: 1492330344712649866, guid: c989edca894e8e74baa57898a0cb9b55,
        type: 3}
      propertyPath: m_LocalEulerAnglesHint.x
      value: 0
      objectReference: {fileID: 0}
    - target: {fileID: 1492330344712649866, guid: c989edca894e8e74baa57898a0cb9b55,
        type: 3}
      propertyPath: m_LocalEulerAnglesHint.y
      value: 0
      objectReference: {fileID: 0}
    - target: {fileID: 1492330344712649866, guid: c989edca894e8e74baa57898a0cb9b55,
        type: 3}
      propertyPath: m_LocalEulerAnglesHint.z
      value: 0
      objectReference: {fileID: 0}
    - target: {fileID: 1492330344712649865, guid: c989edca894e8e74baa57898a0cb9b55,
        type: 3}
      propertyPath: m_Sprite
      value: 
      objectReference: {fileID: 21300000, guid: 8fc41eb405acb9a41a0fa868d098051f,
        type: 3}
    - target: {fileID: 1492330344712649865, guid: c989edca894e8e74baa57898a0cb9b55,
        type: 3}
      propertyPath: m_Color.r
      value: 1
      objectReference: {fileID: 0}
    - target: {fileID: 1492330344712649865, guid: c989edca894e8e74baa57898a0cb9b55,
        type: 3}
      propertyPath: m_Color.g
      value: 1
      objectReference: {fileID: 0}
    - target: {fileID: 1492330344712649865, guid: c989edca894e8e74baa57898a0cb9b55,
        type: 3}
      propertyPath: m_Color.b
      value: 1
      objectReference: {fileID: 0}
    - target: {fileID: 1492330343948145038, guid: c989edca894e8e74baa57898a0cb9b55,
        type: 3}
      propertyPath: m_Parameters.colorGradient.key0.r
      value: 0.44313726
      objectReference: {fileID: 0}
    - target: {fileID: 1492330343948145038, guid: c989edca894e8e74baa57898a0cb9b55,
        type: 3}
      propertyPath: m_Parameters.colorGradient.key0.g
      value: 0.7882353
      objectReference: {fileID: 0}
    - target: {fileID: 1492330343948145038, guid: c989edca894e8e74baa57898a0cb9b55,
        type: 3}
      propertyPath: m_Parameters.colorGradient.key0.b
      value: 0.21568628
      objectReference: {fileID: 0}
    - target: {fileID: 1492330343948145038, guid: c989edca894e8e74baa57898a0cb9b55,
        type: 3}
      propertyPath: m_Parameters.widthCurve.m_Curve.Array.data[0].time
      value: 0
      objectReference: {fileID: 0}
    - target: {fileID: 1492330343948145038, guid: c989edca894e8e74baa57898a0cb9b55,
        type: 3}
      propertyPath: m_Parameters.widthCurve.m_Curve.Array.data[0].value
      value: 0.41448402
      objectReference: {fileID: 0}
    m_RemovedComponents: []
  m_SourcePrefab: {fileID: 100100000, guid: c989edca894e8e74baa57898a0cb9b55, type: 3}
